{
    "shortName": "AA",
    "latestSolutionName": "test Solution",
    "solutionsList": [
      {
        "solutionId": "com::apporchid::system::testsolution",
        "solutionName": "testsolution",
        "description": "testsolution solution with many applications",
        "displayName": "Test Solution",
        "imageUrl": "/assets/images/thumbnails/chat.png",
        "createdDate": "Mon 23 Apr, 2018 12:52",
        "default": false,
        "published": false
      }, {
        "solutionId": "com::apporchid::system::testsolution1",
        "solutionName": "testsolution1",
        "description": "testsolution1 solution with many applications",
        "displayName": "Test Solution1",
        "imageUrl": "/assets/images/thumbnails/calendar.png",
        "createdDate": "Mon 23 Apr, 2018 12:52",
        "default": false,
        "published": false
      }
    ],
    "userName": "Administrator Administrator"
  }
  