[
    {
        "name": "analytics-1.png",
        "url": "assets/images/thumbnails/analytics-1.png"
    }, {
        "name": "analytics.png",
        "url": "assets/images/thumbnails/analytics.png"
    }, {
        "name": "bar-chart.png",
        "url": "assets/images/thumbnails/bar-chart.png"
    }, {
        "name": "big-icon.png",
        "url": "assets/images/thumbnails/big-icon.png"
    },{
        "name": "binoculars.png",
        "url": "assets/images/thumbnails/binoculars.png"
    }, {
        "name": "calculator.png",
        "url": "assets/images/thumbnails/calculator.png"
    }, {
        "name": "calendar.png",
        "url": "assets/images/thumbnails/calendar.png"
    }, {
        "name": "chat.png",
        "url": "assets/images/thumbnails/chat.png"
    }, {
        "name": "checklist.png",
        "url": "assets/images/thumbnails/checklist.png"
    }, {
        "name": "competition.png",
        "url": "assets/images/thumbnails/competition.png"
    }, {
        "name": "contract.png",
        "url": "assets/images/thumbnails/contract.png"
    }, {
        "name": "deal.png",
        "url": "assets/images/thumbnails/deal.png"
    }, {
        "name": "diagram.png",
        "url": "assets/images/thumbnails/diagram.png"
    }, {
        "name": "goal.png",
        "url": "assets/images/thumbnails/goal.png"
    }, {
        "name": "help.png",
        "url": "assets/images/thumbnails/help.png"
    }, {
        "name": "idea.png",
        "url": "assets/images/thumbnails/idea.png"
    }
]