{
    "@class": "com.apporchid.vulcanux.common.ui.solution.Solution",
    "name":"meterops",
    "id": "",
    "description": "",
    "header": null,
    "imageUrl": "",
    "container": {
        "@class": "com.apporchid.vulcanux.common.ui.solution.SolutionContainer",
        "type": "Group",
        "visible": true,
        "components": [
            {
                "@class": "com.apporchid.vulcanux.common.ui.solution.SolutionPage",
                "type": "Group",
                "visible": true,
                "components": []
            }
        ]
    }
}